^D:\FACULTA\AN 2\CLOUD SEM 2 AN 2\CLOUD TEMA 2\DEBUG\GENERATED.LIB|D:\FACULTA\AN 2\CLOUD SEM 2 AN 2\CLOUD TEMA 2\SERVER\DEBUG\HOROSCOPEMONTH.OBJ|D:\FACULTA\AN 2\CLOUD SEM 2 AN 2\CLOUD TEMA 2\SERVER\DEBUG\SERVER.OBJ|D:\FACULTA\AN 2\CLOUD SEM 2 AN 2\CLOUD TEMA 2\SERVER\DEBUG\SERVERSERVICE.OBJ
D:\FACULTA\AN 2\CLOUD SEM 2 AN 2\CLOUD TEMA 2\DEBUG\SERVER.EXE
D:\FACULTA\AN 2\CLOUD SEM 2 AN 2\CLOUD TEMA 2\DEBUG\SERVER.ILK
D:\FACULTA\AN 2\CLOUD SEM 2 AN 2\CLOUD TEMA 2\DEBUG\SERVER.PDB
