^D:\FACULTA\AN 2\CLOUD SEM 2 AN 2\CLOUD TEMA 2\CLIENT\DEBUG\CLIENT.OBJ|D:\FACULTA\AN 2\CLOUD SEM 2 AN 2\CLOUD TEMA 2\CLIENT\DEBUG\DATAVALIDATOR.OBJ|D:\FACULTA\AN 2\CLOUD SEM 2 AN 2\CLOUD TEMA 2\DEBUG\GENERATED.LIB
C:\VCPKG-MASTER\INSTALLED\X86-WINDOWS\DEBUG\LIB\ABSL_BASE.LIB
C:\VCPKG-MASTER\INSTALLED\X86-WINDOWS\DEBUG\LIB\ABSL_STRINGS.LIB
C:\VCPKG-MASTER\INSTALLED\X86-WINDOWS\DEBUG\LIB\ABSL_THROW_DELEGATE.LIB
C:\VCPKG-MASTER\INSTALLED\X86-WINDOWS\DEBUG\LIB\ADDRESS_SORTING.LIB
C:\VCPKG-MASTER\INSTALLED\X86-WINDOWS\DEBUG\LIB\CARES.LIB
C:\VCPKG-MASTER\INSTALLED\X86-WINDOWS\DEBUG\LIB\GPR.LIB
C:\VCPKG-MASTER\INSTALLED\X86-WINDOWS\DEBUG\LIB\GRPC.LIB
C:\VCPKG-MASTER\INSTALLED\X86-WINDOWS\DEBUG\LIB\GRPC++.LIB
C:\VCPKG-MASTER\INSTALLED\X86-WINDOWS\DEBUG\LIB\LIBCRYPTO.LIB
C:\VCPKG-MASTER\INSTALLED\X86-WINDOWS\DEBUG\LIB\LIBPROTOBUFD.LIB
C:\VCPKG-MASTER\INSTALLED\X86-WINDOWS\DEBUG\LIB\LIBSSL.LIB
C:\VCPKG-MASTER\INSTALLED\X86-WINDOWS\DEBUG\LIB\UPB.LIB
C:\PROGRAM FILES (X86)\WINDOWS KITS\10\LIB\10.0.18362.0\UM\X86\WS2_32.LIB
C:\VCPKG-MASTER\INSTALLED\X86-WINDOWS\DEBUG\LIB\ZLIBD.LIB
C:\PROGRAM FILES (X86)\WINDOWS KITS\10\LIB\10.0.18362.0\UM\X86\KERNEL32.LIB
C:\PROGRAM FILES (X86)\WINDOWS KITS\10\LIB\10.0.18362.0\UM\X86\USER32.LIB
C:\PROGRAM FILES (X86)\WINDOWS KITS\10\LIB\10.0.18362.0\UM\X86\GDI32.LIB
C:\PROGRAM FILES (X86)\WINDOWS KITS\10\LIB\10.0.18362.0\UM\X86\WINSPOOL.LIB
C:\PROGRAM FILES (X86)\WINDOWS KITS\10\LIB\10.0.18362.0\UM\X86\COMDLG32.LIB
C:\PROGRAM FILES (X86)\WINDOWS KITS\10\LIB\10.0.18362.0\UM\X86\ADVAPI32.LIB
C:\PROGRAM FILES (X86)\WINDOWS KITS\10\LIB\10.0.18362.0\UM\X86\SHELL32.LIB
C:\PROGRAM FILES (X86)\WINDOWS KITS\10\LIB\10.0.18362.0\UM\X86\OLE32.LIB
C:\PROGRAM FILES (X86)\WINDOWS KITS\10\LIB\10.0.18362.0\UM\X86\OLEAUT32.LIB
C:\PROGRAM FILES (X86)\WINDOWS KITS\10\LIB\10.0.18362.0\UM\X86\UUID.LIB
C:\PROGRAM FILES (X86)\WINDOWS KITS\10\LIB\10.0.18362.0\UM\X86\ODBC32.LIB
C:\PROGRAM FILES (X86)\WINDOWS KITS\10\LIB\10.0.18362.0\UM\X86\ODBCCP32.LIB
C:\VCPKG-MASTER\INSTALLED\X86-WINDOWS\DEBUG\LIB\ABSL_BAD_ANY_CAST_IMPL.LIB
C:\VCPKG-MASTER\INSTALLED\X86-WINDOWS\DEBUG\LIB\ABSL_BAD_OPTIONAL_ACCESS.LIB
C:\VCPKG-MASTER\INSTALLED\X86-WINDOWS\DEBUG\LIB\ABSL_BAD_VARIANT_ACCESS.LIB
C:\VCPKG-MASTER\INSTALLED\X86-WINDOWS\DEBUG\LIB\ABSL_CITY.LIB
C:\VCPKG-MASTER\INSTALLED\X86-WINDOWS\DEBUG\LIB\ABSL_CIVIL_TIME.LIB
C:\VCPKG-MASTER\INSTALLED\X86-WINDOWS\DEBUG\LIB\ABSL_DEBUGGING_INTERNAL.LIB
C:\VCPKG-MASTER\INSTALLED\X86-WINDOWS\DEBUG\LIB\ABSL_DEMANGLE_INTERNAL.LIB
C:\VCPKG-MASTER\INSTALLED\X86-WINDOWS\DEBUG\LIB\ABSL_DYNAMIC_ANNOTATIONS.LIB
C:\VCPKG-MASTER\INSTALLED\X86-WINDOWS\DEBUG\LIB\ABSL_EXAMINE_STACK.LIB
C:\VCPKG-MASTER\INSTALLED\X86-WINDOWS\DEBUG\LIB\ABSL_EXPONENTIAL_BIASED.LIB
C:\VCPKG-MASTER\INSTALLED\X86-WINDOWS\DEBUG\LIB\ABSL_FAILURE_SIGNAL_HANDLER.LIB
C:\VCPKG-MASTER\INSTALLED\X86-WINDOWS\DEBUG\LIB\ABSL_FLAGS.LIB
C:\VCPKG-MASTER\INSTALLED\X86-WINDOWS\DEBUG\LIB\ABSL_FLAGS_CONFIG.LIB
C:\VCPKG-MASTER\INSTALLED\X86-WINDOWS\DEBUG\LIB\ABSL_FLAGS_HANDLE.LIB
C:\VCPKG-MASTER\INSTALLED\X86-WINDOWS\DEBUG\LIB\ABSL_FLAGS_INTERNAL.LIB
C:\VCPKG-MASTER\INSTALLED\X86-WINDOWS\DEBUG\LIB\ABSL_FLAGS_MARSHALLING.LIB
C:\VCPKG-MASTER\INSTALLED\X86-WINDOWS\DEBUG\LIB\ABSL_FLAGS_PARSE.LIB
C:\VCPKG-MASTER\INSTALLED\X86-WINDOWS\DEBUG\LIB\ABSL_FLAGS_PROGRAM_NAME.LIB
C:\VCPKG-MASTER\INSTALLED\X86-WINDOWS\DEBUG\LIB\ABSL_FLAGS_REGISTRY.LIB
C:\VCPKG-MASTER\INSTALLED\X86-WINDOWS\DEBUG\LIB\ABSL_FLAGS_USAGE.LIB
C:\VCPKG-MASTER\INSTALLED\X86-WINDOWS\DEBUG\LIB\ABSL_FLAGS_USAGE_INTERNAL.LIB
C:\VCPKG-MASTER\INSTALLED\X86-WINDOWS\DEBUG\LIB\ABSL_GRAPHCYCLES_INTERNAL.LIB
C:\VCPKG-MASTER\INSTALLED\X86-WINDOWS\DEBUG\LIB\ABSL_HASH.LIB
C:\VCPKG-MASTER\INSTALLED\X86-WINDOWS\DEBUG\LIB\ABSL_HASHTABLEZ_SAMPLER.LIB
C:\VCPKG-MASTER\INSTALLED\X86-WINDOWS\DEBUG\LIB\ABSL_INT128.LIB
C:\VCPKG-MASTER\INSTALLED\X86-WINDOWS\DEBUG\LIB\ABSL_LEAK_CHECK.LIB
C:\VCPKG-MASTER\INSTALLED\X86-WINDOWS\DEBUG\LIB\ABSL_LEAK_CHECK_DISABLE.LIB
C:\VCPKG-MASTER\INSTALLED\X86-WINDOWS\DEBUG\LIB\ABSL_LOG_SEVERITY.LIB
C:\VCPKG-MASTER\INSTALLED\X86-WINDOWS\DEBUG\LIB\ABSL_MALLOC_INTERNAL.LIB
C:\VCPKG-MASTER\INSTALLED\X86-WINDOWS\DEBUG\LIB\ABSL_PERIODIC_SAMPLER.LIB
C:\VCPKG-MASTER\INSTALLED\X86-WINDOWS\DEBUG\LIB\ABSL_RANDOM_DISTRIBUTIONS.LIB
C:\VCPKG-MASTER\INSTALLED\X86-WINDOWS\DEBUG\LIB\ABSL_RANDOM_INTERNAL_DISTRIBUTION_TEST_UTIL.LIB
C:\VCPKG-MASTER\INSTALLED\X86-WINDOWS\DEBUG\LIB\ABSL_RANDOM_INTERNAL_POOL_URBG.LIB
C:\VCPKG-MASTER\INSTALLED\X86-WINDOWS\DEBUG\LIB\ABSL_RANDOM_INTERNAL_RANDEN.LIB
C:\VCPKG-MASTER\INSTALLED\X86-WINDOWS\DEBUG\LIB\ABSL_RANDOM_INTERNAL_RANDEN_HWAES.LIB
C:\VCPKG-MASTER\INSTALLED\X86-WINDOWS\DEBUG\LIB\ABSL_RANDOM_INTERNAL_RANDEN_HWAES_IMPL.LIB
C:\VCPKG-MASTER\INSTALLED\X86-WINDOWS\DEBUG\LIB\ABSL_RANDOM_INTERNAL_RANDEN_SLOW.LIB
C:\VCPKG-MASTER\INSTALLED\X86-WINDOWS\DEBUG\LIB\ABSL_RANDOM_INTERNAL_SEED_MATERIAL.LIB
C:\VCPKG-MASTER\INSTALLED\X86-WINDOWS\DEBUG\LIB\ABSL_RANDOM_SEED_GEN_EXCEPTION.LIB
C:\VCPKG-MASTER\INSTALLED\X86-WINDOWS\DEBUG\LIB\ABSL_RANDOM_SEED_SEQUENCES.LIB
C:\VCPKG-MASTER\INSTALLED\X86-WINDOWS\DEBUG\LIB\ABSL_RAW_HASH_SET.LIB
C:\VCPKG-MASTER\INSTALLED\X86-WINDOWS\DEBUG\LIB\ABSL_RAW_LOGGING_INTERNAL.LIB
C:\VCPKG-MASTER\INSTALLED\X86-WINDOWS\DEBUG\LIB\ABSL_SCOPED_SET_ENV.LIB
C:\VCPKG-MASTER\INSTALLED\X86-WINDOWS\DEBUG\LIB\ABSL_SPINLOCK_WAIT.LIB
C:\VCPKG-MASTER\INSTALLED\X86-WINDOWS\DEBUG\LIB\ABSL_STACKTRACE.LIB
C:\VCPKG-MASTER\INSTALLED\X86-WINDOWS\DEBUG\LIB\ABSL_STRINGS_INTERNAL.LIB
C:\VCPKG-MASTER\INSTALLED\X86-WINDOWS\DEBUG\LIB\ABSL_STR_FORMAT_INTERNAL.LIB
C:\VCPKG-MASTER\INSTALLED\X86-WINDOWS\DEBUG\LIB\ABSL_SYMBOLIZE.LIB
C:\VCPKG-MASTER\INSTALLED\X86-WINDOWS\DEBUG\LIB\ABSL_SYNCHRONIZATION.LIB
C:\VCPKG-MASTER\INSTALLED\X86-WINDOWS\DEBUG\LIB\ABSL_TIME.LIB
C:\VCPKG-MASTER\INSTALLED\X86-WINDOWS\DEBUG\LIB\ABSL_TIME_ZONE.LIB
C:\VCPKG-MASTER\INSTALLED\X86-WINDOWS\DEBUG\LIB\GRPC++_ALTS.LIB
C:\VCPKG-MASTER\INSTALLED\X86-WINDOWS\DEBUG\LIB\GRPC++_ERROR_DETAILS.LIB
C:\VCPKG-MASTER\INSTALLED\X86-WINDOWS\DEBUG\LIB\GRPC++_REFLECTION.LIB
C:\VCPKG-MASTER\INSTALLED\X86-WINDOWS\DEBUG\LIB\GRPC++_UNSECURE.LIB
C:\VCPKG-MASTER\INSTALLED\X86-WINDOWS\DEBUG\LIB\GRPCPP_CHANNELZ.LIB
C:\VCPKG-MASTER\INSTALLED\X86-WINDOWS\DEBUG\LIB\GRPC_CRONET.LIB
C:\VCPKG-MASTER\INSTALLED\X86-WINDOWS\DEBUG\LIB\GRPC_PLUGIN_SUPPORT.LIB
C:\VCPKG-MASTER\INSTALLED\X86-WINDOWS\DEBUG\LIB\GRPC_UNSECURE.LIB
C:\VCPKG-MASTER\INSTALLED\X86-WINDOWS\DEBUG\LIB\HANDLERS.LIB
C:\VCPKG-MASTER\INSTALLED\X86-WINDOWS\DEBUG\LIB\LEGACY_MSG_REFLECTION.LIB
C:\VCPKG-MASTER\INSTALLED\X86-WINDOWS\DEBUG\LIB\LIBCURL-D.LIB
C:\VCPKG-MASTER\INSTALLED\X86-WINDOWS\DEBUG\LIB\LIBPROTOBUF-LITED.LIB
C:\VCPKG-MASTER\INSTALLED\X86-WINDOWS\DEBUG\LIB\LIBPROTOCD.LIB
C:\VCPKG-MASTER\INSTALLED\X86-WINDOWS\DEBUG\LIB\REFLECTION.LIB
C:\VCPKG-MASTER\INSTALLED\X86-WINDOWS\DEBUG\LIB\UPB_JSON.LIB
C:\VCPKG-MASTER\INSTALLED\X86-WINDOWS\DEBUG\LIB\UPB_PB.LIB
D:\FACULTA\AN 2\CLOUD SEM 2 AN 2\CLOUD TEMA 2\CLIENT\DEBUG\CLIENT.OBJ
D:\FACULTA\AN 2\CLOUD SEM 2 AN 2\CLOUD TEMA 2\CLIENT\DEBUG\DATAVALIDATOR.OBJ
D:\FACULTA\AN 2\CLOUD SEM 2 AN 2\CLOUD TEMA 2\DEBUG\GENERATED.LIB
C:\WINDOWS\SYSTEM32\TZRES.DLL
C:\WINDOWS\GLOBALIZATION\SORTING\SORTDEFAULT.NLS
C:\PROGRAM FILES (X86)\MICROSOFT VISUAL STUDIO\2019\COMMUNITY\VC\TOOLS\MSVC\14.24.28314\LIB\X86\MSVCPRTD.LIB
C:\PROGRAM FILES (X86)\MICROSOFT VISUAL STUDIO\2019\COMMUNITY\VC\TOOLS\MSVC\14.24.28314\LIB\X86\MSVCRTD.LIB
C:\PROGRAM FILES (X86)\MICROSOFT VISUAL STUDIO\2019\COMMUNITY\VC\TOOLS\MSVC\14.24.28314\LIB\X86\OLDNAMES.LIB
C:\PROGRAM FILES (X86)\MICROSOFT VISUAL STUDIO\2019\COMMUNITY\VC\TOOLS\MSVC\14.24.28314\LIB\X86\VCRUNTIMED.LIB
C:\PROGRAM FILES (X86)\WINDOWS KITS\10\LIB\10.0.18362.0\UCRT\X86\UCRTD.LIB
