^D:\FACULTA\AN 2\CLOUD SEM 2 AN 2\CLOUD TEMA 2\CLIENT\DEBUG\CLIENT.OBJ|D:\FACULTA\AN 2\CLOUD SEM 2 AN 2\CLOUD TEMA 2\CLIENT\DEBUG\DATAVALIDATOR.OBJ|D:\FACULTA\AN 2\CLOUD SEM 2 AN 2\CLOUD TEMA 2\DEBUG\GENERATED.LIB
/OUT:"D:\FACULTA\AN 2\CLOUD SEM 2 AN 2\CLOUD TEMA 2\DEBUG\CLIENT.EXE" /INCREMENTAL /NOLOGO /LIBPATH:"C:\VCPKG-MASTER\INSTALLED\X86-WINDOWS\DEBUG\LIB" /LIBPATH:"C:\VCPKG-MASTER\INSTALLED\X86-WINDOWS\DEBUG\LIB" /LIBPATH:"C:\VCPKG-MASTER\INSTALLED\X86-WINDOWS\DEBUG\LIB\MANUAL-LINK" ABSL_BASE.LIB ABSL_STRINGS.LIB ABSL_THROW_DELEGATE.LIB ADDRESS_SORTING.LIB CARES.LIB GPR.LIB GRPC.LIB GRPC++.LIB LIBCRYPTO.LIB LIBPROTOBUFD.LIB LIBSSL.LIB UPB.LIB WS2_32.LIB ZLIBD.LIB KERNEL32.LIB USER32.LIB GDI32.LIB WINSPOOL.LIB COMDLG32.LIB ADVAPI32.LIB SHELL32.LIB OLE32.LIB OLEAUT32.LIB UUID.LIB ODBC32.LIB ODBCCP32.LIB "C:\VCPKG-MASTER\INSTALLED\X86-WINDOWS\DEBUG\LIB\*.LIB" /MANIFEST /MANIFESTUAC:"level='asInvoker' uiAccess='false'" /manifest:embed /DEBUG:FASTLINK /PDB:"D:\FACULTA\AN 2\CLOUD SEM 2 AN 2\CLOUD TEMA 2\DEBUG\CLIENT.PDB" /SUBSYSTEM:CONSOLE /TLBID:1 /DYNAMICBASE /NXCOMPAT /IMPLIB:"D:\FACULTA\AN 2\CLOUD SEM 2 AN 2\CLOUD TEMA 2\DEBUG\CLIENT.LIB" /MACHINE:X86 DEBUG\CLIENT.OBJ
DEBUG\DATAVALIDATOR.OBJ
"D:\FACULTA\AN 2\CLOUD SEM 2 AN 2\CLOUD TEMA 2\DEBUG\GENERATED.LIB"
