^D:\FACULTA\AN 2\CLOUD SEM 2 AN 2\CLOUD TEMA 1\CLOUD TEMA 1\DEBUG\CLIENTNAME.GRPC.PB.OBJ|D:\FACULTA\AN 2\CLOUD SEM 2 AN 2\CLOUD TEMA 1\CLOUD TEMA 1\DEBUG\CLIENTNAME.PB.OBJ|D:\FACULTA\AN 2\CLOUD SEM 2 AN 2\CLOUD TEMA 1\CLOUD TEMA 1\DEBUG\MESSAGE.GRPC.PB.OBJ|D:\FACULTA\AN 2\CLOUD SEM 2 AN 2\CLOUD TEMA 1\CLOUD TEMA 1\DEBUG\MESSAGE.PB.OBJ|D:\FACULTA\AN 2\CLOUD SEM 2 AN 2\CLOUD TEMA 1\CLOUD TEMA 1\DEBUG\REPLY.GRPC.PB.OBJ|D:\FACULTA\AN 2\CLOUD SEM 2 AN 2\CLOUD TEMA 1\CLOUD TEMA 1\DEBUG\REPLY.PB.OBJ
/OUT:"D:\FACULTA\AN 2\CLOUD SEM 2 AN 2\CLOUD TEMA 1\DEBUG\GENERATED.LIB" LIBPROTOBUFD.LIB GRPC.LIB /LIBPATH:"C:\VCPKG-MASTER\INSTALLED\X86-WINDOWS\DEBUG\LIB" /NOLOGO /MACHINE:X86 DEBUG\CLIENTNAME.GRPC.PB.OBJ
DEBUG\CLIENTNAME.PB.OBJ
DEBUG\MESSAGE.GRPC.PB.OBJ
DEBUG\MESSAGE.PB.OBJ
DEBUG\REPLY.GRPC.PB.OBJ
DEBUG\REPLY.PB.OBJ
